[0722/103943.245:ERROR:crash_report_database_win.cc(469)] failed to stat report
[0722/103943.246:ERROR:crash_report_database_win.cc(469)] failed to stat report
[0722/103943.246:ERROR:crash_report_database_win.cc(469)] failed to stat report
[0722/103943.246:ERROR:crash_report_database_win.cc(469)] failed to stat report
[0722/103943.246:ERROR:crash_report_database_win.cc(469)] failed to stat report
[0722/103943.246:ERROR:crash_report_database_win.cc(469)] failed to stat report
[0722/103943.246:ERROR:crash_report_database_win.cc(469)] failed to stat report
[0722/103943.246:ERROR:crash_report_database_win.cc(469)] failed to stat report
[0722/103943.246:ERROR:crash_report_database_win.cc(469)] failed to stat report
[0916/164139.320:ERROR:crash_report_database_win.cc(469)] failed to stat report
[0916/164139.321:ERROR:crash_report_database_win.cc(469)] failed to stat report
[0916/164139.321:ERROR:crash_report_database_win.cc(469)] failed to stat report
[0916/164139.321:ERROR:crash_report_database_win.cc(469)] failed to stat report
[0916/164139.321:ERROR:crash_report_database_win.cc(469)] failed to stat report
[0916/164139.321:ERROR:crash_report_database_win.cc(469)] failed to stat report
[0916/164139.321:ERROR:crash_report_database_win.cc(469)] failed to stat report
[0916/164139.321:ERROR:crash_report_database_win.cc(469)] failed to stat report
[0916/164139.321:ERROR:crash_report_database_win.cc(469)] failed to stat report
